Place,Name,State,Country,Division,BodyweightKg,WeightClassKg,Squat1Kg,Squat2Kg,Squat3Kg,Best3SquatKg,Bench1Kg,Bench2Kg,Bench3Kg,Best3BenchKg,Deadlift1Kg,Deadlift2Kg,Deadlift3Kg,Best3DeadliftKg,TotalKg,Sex,Event,Equipment
1,Ben Hampson,EM,England,M-C-Open,58.9,59,165,175,180,180,102.5,110,112.5,112.5,180,190,,190,482.5,M,SBD,Raw
2,Aftab Uddin,GL,England,M-C-Open,59,59,140,147.5,150,150,95,-102.5,-102.5,95,190,200,205,205,450,M,SBD,Raw
3,Shaun Bateman,SW,England,M-C-Open,58.7,59,130,140,145,145,95,102.5,105,105,170,180,185,185,435,M,SBD,Raw
4,Manny Tura,YNE,England,M-C-Open,55.6,59,-132.5,132.5,140,140,95,100,-102.5,100,185,190,-195,190,430,M,SBD,Raw
5,Henry Hoang,GL,England,M-C-Open,58.7,59,137.5,145,150,150,85,92.5,-100,92.5,-170,170,-180,170,412.5,M,SBD,Raw
1,Elliot Stone,SE,England,M-C-Open,65.7,66,197.5,207.5,215,215,120,127.5,-132.5,127.5,210,222.5,230,230,572.5,M,SBD,Raw
2,Chris Jennings,SW,England,M-C-Open,65.3,66,172.5,180,-187.5,180,120,127.5,-130,127.5,220,227.5,232.5,232.5,540,M,SBD,Raw
3,Joseph Diva,GL,England,M-C-Open,64.5,66,170,180,-190,180,125,132.5,-140,132.5,205,215,225,225,537.5,M,SBD,Raw
4,Ben Johnson #7,EM,England,M-C-Open,65.2,66,160,172.5,182.5,182.5,112.5,122.5,-130,122.5,195,215,-220,215,520,M,SBD,Raw
5,James Senior,YNE,England,M-C-Open,65.3,66,175,-185,-185,175,125,132.5,137.5,137.5,185,195,200,200,512.5,M,SBD,Raw
1,Christian Ayandokun,SW,England,M-C-Open,74,74,180,210,227.5,227.5,130,142.5,152.5,152.5,257.5,275,-290,275,655,M,SBD,Raw
2,James Duff,YNE,England,M-C-Open,74,74,230,240,-247.5,240,130,135,137.5,137.5,252.5,262.5,272.5,272.5,650,M,SBD,Raw
3,Luke Rogers #1,WM,England,M-C-Open,73.8,74,225,-235,237.5,237.5,-125,130,-137.5,130,252.5,265,272.5,272.5,640,M,SBD,Raw
4,Alexander Espin,GL,England,M-C-Open,74,74,192.5,202.5,-205,202.5,117.5,125,132.5,132.5,255,267.5,275,275,610,M,SBD,Raw
5,Emmanuel Franklin,GL,England,M-C-Open,73.4,74,185,195,205,205,145,155,160,160,205,220,235,235,600,M,SBD,Raw
6,Scott Bradwell,YNE,England,M-C-Open,73.9,74,195,-205,-205,195,140,147.5,-152.5,147.5,227.5,245,-260,245,587.5,M,SBD,Raw
7,Nathaniel Shaw,SE,England,M-C-Open,72,74,195,207.5,215,215,107.5,115,117.5,117.5,225,237.5,-247.5,237.5,570,M,SBD,Raw
8,Jordan Partington,SW,England,M-C-Open,73.6,74,200,210,-217.5,210,122.5,132.5,140,140,190,200,212.5,212.5,562.5,M,SBD,Raw
9,Qasim Iqbal,WM,England,M-C-Open,73.7,74,190,202.5,210,210,110,115,117.5,117.5,215,-222.5,227.5,227.5,555,M,SBD,Raw
1,Mark Harvey #1,NM,England,M-C-Open,73.4,74,195,200,205,205,125,130,132.5,132.5,215,-222.5,-222.5,215,552.5,M,SBD,Raw
1,Steven Townshend,,Wales,M-C-Open,72.3,74,172.5,182.5,-190,182.5,100,107.5,112.5,112.5,200,210,220,220,515,M,SBD,Raw
1,Wayne Barber,YNE,England,M-C-Open,73.2,74,167.5,177.5,185,185,112.5,117.5,-122.5,117.5,197.5,-205,-212.5,197.5,500,M,SBD,Raw
1,Owen Hubbard,,Wales,M-C-Open,82.7,83,250,257.5,-265,257.5,195,205,215.5,215.5,260,280,-301,280,753,M,SBD,Raw
2,Jurins Kengamu,GL,England,M-C-Open,80.4,83,245,255,262.5,262.5,145,155,162.5,162.5,265,285,-301,285,710,M,SBD,Raw
3,Owen Lockwood,YNE,England,M-C-Open,82.8,83,237.5,250,257.5,257.5,142.5,-150,150,150,252.5,270,277.5,277.5,685,M,SBD,Raw
4,Diego Martinez-Rodney,GL,England,M-C-Open,82.8,83,222.5,232.5,237.5,237.5,135,142.5,147.5,147.5,250,270,285,285,670,M,SBD,Raw
5,Christopher Teaque,WM,England,M-C-Open,82.5,83,220,230,235,235,160,165,-170,165,240,260,-270,260,660,M,SBD,Raw
6,Jac Lewis,NW,England,M-C-Open,82,83,212.5,222.5,230,230,155,-165,165,165,-237.5,237.5,-255,237.5,632.5,M,SBD,Raw
7,Daniel Gibson,YNE,England,M-C-Open,81.8,83,205,215,-222.5,215,142.5,-147.5,,142.5,245,257.5,270,270,627.5,M,SBD,Raw
8,Adam Ferrett,SW,England,M-C-Open,81.4,83,195,-205,-207.5,195,117.5,122.5,-127.5,122.5,252.5,265,272.5,272.5,590,M,SBD,Raw
1,Hendrick Famutimi,GL,England,M-C-Open,91.2,93,252.5,262.5,-270,262.5,162.5,172.5,-175,172.5,290,307.5,-310,307.5,742.5,M,SBD,Raw
2,Pierre Shillingford,GL,England,M-C-Open,91.8,93,250,260,-267.5,260,165,175,-180,175,290,307.5,-310,307.5,742.5,M,SBD,Raw
3,Ashley Liston,WM,England,M-C-Open,92.6,93,227.5,240,250,250,170,180,190,190,270,290,300,300,740,M,SBD,Raw
4,Michael Carty,NW,England,M-C-Open,91.8,93,235,247.5,257.5,257.5,162.5,170,175,175,252.5,267.5,280,280,712.5,M,SBD,Raw
5,Lenny Oseni,GL,England,M-C-Open,92.5,93,235,-245,252.5,252.5,155,165,170,170,270,290,-300,290,712.5,M,SBD,Raw
6,Harvey Armitage,EM,England,M-C-Open,90.5,93,245,260,272.5,272.5,150,160,167.5,167.5,232.5,250,260,260,700,M,SBD,Raw
7,Aleem Majid,GL,England,M-C-Open,93,93,240,255,265,265,142.5,155,-162.5,155,250,267.5,280,280,700,M,SBD,Raw
8,Hugo Duarte,EM,England,M-C-Open,91.1,93,247.5,257.5,-265,257.5,137.5,142.5,145,145,275,290,-300,290,692.5,M,SBD,Raw
9,John Hamson,NM,England,M-C-Open,91.5,93,250,-265,-265,250,-150,150,,150,260,280,-300,280,680,M,SBD,Raw
1,Lewis Jones,EM,England,M-C-Open,90.6,93,202.5,217.5,-227.5,217.5,157.5,167.5,175,175,237.5,252.5,-265,252.5,645,M,SBD,Raw
1,Justin White,EM,England,M-C-Open,89.4,93,200,210,-225,210,110,117.5,135,135,285,292.5,-305,292.5,637.5,M,SBD,Raw
1,Stewart Hill,SE,England,M-C-Open,90.4,93,190,200,-205,200,142.5,150,-157.5,150,250,265,275,275,625,M,SBD,Raw
1,Brady Crooks,YNE,England,M-C-Open,91.7,93,210,220,227.5,227.5,135,142.5,145,145,230,245,252.5,252.5,625,M,SBD,Raw
1,Pavlos Kouros,GL,England,M-C-Open,92.3,93,-202.5,202.5,-210,202.5,152.5,160,-162.5,160,242.5,252.5,260,260,622.5,M,SBD,Raw
1,Alastair Woodwood,YNE,England,M-C-Open,90.7,93,190,200,-210,200,137.5,142.5,-147.5,142.5,245,260,270,270,612.5,M,SBD,Raw
1,Luke Gardner,GL,England,M-C-Open,92.7,93,202.5,217.5,225,225,122.5,127.5,-130,127.5,245,260,-265,260,612.5,M,SBD,Raw
1,Nick Humphries,YNE,England,M-C-Open,90.7,93,200,212.5,-220,212.5,120,125,-127.5,125,240,260,265,265,602.5,M,SBD,Raw
1,Henry Easthorpe,SE,England,M-C-Open,92.3,93,207.5,217.5,-225,217.5,132.5,137.5,-142.5,137.5,230,245,-255,245,600,M,SBD,Raw
1,Liam Thorpe,YNE,England,M-C-Open,91.5,93,207.5,220,-227.5,220,130,140,145,145,212.5,225,230,230,595,M,SBD,Raw
2,Neil Mehrtens,GL,England,M-C-Open,92.1,93,205,212.5,-220,212.5,140,147.5,152.5,152.5,220,230,-240,230,595,M,SBD,Raw
G,Joshua Greenfield,YNE,England,M-C-G,111.3,120,307.5,325,337.5,337.5,167.5,177.5,-182.5,177.5,277.5,295,305,305,820,M,SBD,Raw
1,Robert Rees,GL,England,M-C-Open,104.4,105,255,267.5,272.5,272.5,180,187.5,190,190,305,325,-327.5,325,787.5,M,SBD,Raw
2,Josh Edwards #1,,Wales,M-C-Open,105,105,260,275,-280,275,160,-167.5,167.5,167.5,325,341,-346,341,783.5,M,SBD,Raw
3,Jeff Ocrah,GL,England,M-C-Open,103.4,105,245,-260,270,270,165,175,-182.5,175,290,300,310,310,755,M,SBD,Raw
4,Inderraj Singh Dhillon,WM,England,M-C-Open,102.4,105,270,-290,-290,270,145,152.5,-157.5,152.5,310,322.5,-332.5,322.5,745,M,SBD,Raw
5,James Blundell,EM,England,M-C-Open,99.2,105,230,245,252.5,252.5,165,175,182.5,182.5,265,285,305,305,740,M,SBD,Raw
6,Ross Brimsted,SE,England,M-C-Open,104.3,105,250,-260,260,260,160,170,-177.5,170,270,300,310,310,740,M,SBD,Raw
7,Aaron Lewis,,Wales,M-C-Open,104.3,105,275,-285,-285,275,177.5,182.5,-190,182.5,272.5,280,-292.5,280,737.5,M,SBD,Raw
8,Jack Clayton,WM,England,M-C-Open,103.2,105,235,245,252.5,252.5,170,175,180,180,270,280,290,290,722.5,M,SBD,Raw
9,George Seeger,SM,England,M-C-Open,101.9,105,222.5,-237.5,-245,222.5,147.5,155,160,160,287.5,307.5,320,320,702.5,M,SBD,Raw
1,Aaron Cooper #1,EM,England,M-C-Open,103.5,105,240,255,265,265,150,160,-162.5,160,250,265,277.5,277.5,702.5,M,SBD,Raw
1,James Lawrence,WM,England,M-C-Open,104,105,235,250,255,255,140,150,155,155,270,290,-292.5,290,700,M,SBD,Raw
1,Nicholas Kenny,SW,England,M-C-Open,104.3,105,225,240,247.5,247.5,142.5,152.5,-157.5,152.5,270,295,-310,295,695,M,SBD,Raw
1,Aristotelis Chatzigiannakis,GL,England,M-C-Open,100.1,105,225,240,250,250,155,165,-170,165,265,275,-285,275,690,M,SBD,Raw
1,Matthew Dempsey,YNE,England,M-C-Open,104.4,105,240,250,257.5,257.5,150,160,-165,160,240,252.5,260,260,677.5,M,SBD,Raw
1,Mason Mills #1,GL,England,M-C-Open,101.3,105,240,250,-257.5,250,135,140,-142.5,140,260,272.5,280,280,670,M,SBD,Raw
1,Chris Horton,NW,England,M-C-Open,103.1,105,-225,225,232.5,232.5,165,170,-175,170,235,245,250,250,652.5,M,SBD,Raw
1,Chris Brown #2,SW,England,M-C-Open,103.5,105,200,215,220,220,152.5,160,162.5,162.5,250,262.5,267.5,267.5,650,M,SBD,Raw
1,Jonathan Watson,YNE,England,M-C-Open,102.8,105,225,235,,235,135,-142.5,,135,260,,,260,630,M,SBD,Raw
1,Robert Haddock,WM,England,M-C-Open,102.3,105,220,230,240,240,122.5,127.5,130,130,240,250,257.5,257.5,627.5,M,SBD,Raw
DQ,Ben Deller-Rust,YNE,England,M-C-Open,104.5,105,195,210,-220,210,150,157.5,-160,157.5,-250,-250,-250,,,M,SBD,Raw
DD,Harry Figg,NM,England,M-C-Open,104.7,105,-260,-260,260,260,172.5,177.5,185,185,-270,,,,,M,SBD,Raw
DQ,Matthew Deacon-Smith,SW,England,M-C-Open,101.9,105,240,255,-265,255,127.5,135,142.5,142.5,-282.5,-282.5,-282.5,,,M,SBD,Raw
1,Tony Cliffe,NW,England,M-C-Open,119.3,120,315,332.5,-345.5,332.5,-220,230,235,235,330,345,350,350,917.5,M,SBD,Raw
2,Baruch Sekenofsky,GL,England,M-C-Open,119.3,120,310,325,335,335,200,-207.5,-207.5,200,310,330,-350,330,865,M,SBD,Raw
3,Joseph Walton #1,,Wales,M-C-Open,118.4,120,290,310,320,320,172.5,180,-187.5,180,280,-300,307.5,307.5,807.5,M,SBD,Raw
4,Iain MacConnachie,SW,England,M-C-Open,119.3,120,310,330,-345,330,175,185,-195,185,270,285,292.5,292.5,807.5,M,SBD,Raw
5,Francis Sanders,EM,England,M-C-Open,117.6,120,252.5,270,277.5,277.5,152.5,165,170,170,295,310,322.5,322.5,770,M,SBD,Raw
6,Frankie Park,EM,England,M-C-Open,119,120,275,287.5,-302.5,287.5,165,175,-182.5,175,255,265,275,275,737.5,M,SBD,Raw
7,Joe Martin #1,SE,England,M-C-Open,109.1,120,242.5,255,-265,255,167.5,177.5,-182.5,177.5,262.5,277.5,290,290,722.5,M,SBD,Raw
8,Joshua Black #1,,Wales,M-C-Open,117.9,120,-280,280,-290,280,140,147.5,152.5,152.5,-240,-240,240,240,672.5,M,SBD,Raw
9,Louis Phelps,SW,England,M-C-Open,109.4,120,230,-240,245,245,140,150,152.5,152.5,260,272.5,-282.5,272.5,670,M,SBD,Raw
1,Lawrence Harrington,SW,England,M-C-Open,115.1,120,215,225,235,235,150,160,165,165,250,260,270,270,670,M,SBD,Raw
1,Joe Cavalier,YNE,England,M-C-Open,117.8,120,215,230,240,240,142.5,-150,152.5,152.5,245,262.5,272.5,272.5,665,M,SBD,Raw
1,Steven Cuthbert,YNE,England,M-C-Open,115,120,230,-242.5,242.5,242.5,122.5,130,135,135,240,252.5,262.5,262.5,640,M,SBD,Raw
1,Will Freeman Dunn,NW,England,M-C-Open,119.2,120,180,195,-197.5,195,-170,170,-182.5,170,180,195,210,210,575,M,SBD,Raw
DQ,Dave Richardson #1,NM,England,M-C-Open,119.4,120,285,-305,-305,285,177.5,180,-185,180,-325,,,,,M,SBD,Raw
1,Mark Macqueen,,Scotland,M-C-Open,142.6,120+,-327.5,350,365,365,187.5,200,207.5,207.5,315,330,347.5,347.5,920,M,SBD,Raw
DD,Aaron Thompson #1,NM,England,M-C-Open,166.7,120+,320,340,360,360,190,-200,200,200,310,330,-362.5,330,,M,SBD,Raw
2,Ross Shahin-Ajerlo,NW,England,M-C-Open,124.8,120+,-240,-250,250,250,190,202.5,210,210,285,305,315,315,775,M,SBD,Raw
3,Mathew Kidner,,Wales,M-C-Open,133.9,120+,215,230,240,240,140,147.5,155,155,260,275,-282.5,275,670,M,SBD,Raw
4,Danny Harper,WM,England,M-C-Open,130.4,120+,230,245,252.5,252.5,130,142.5,147.5,147.5,230,250,257.5,257.5,657.5,M,SBD,Raw
5,Adam Laverick,YNE,England,M-C-Open,135,120+,222.5,232.5,240,240,142.5,152.5,162.5,162.5,235,245,-250,245,647.5,M,SBD,Raw
6,Paul Shorten,YNE,England,M-C-Open,173.2,120+,240,-255,-262.5,240,130,135,140,140,230,237.5,-245,237.5,617.5,M,SBD,Raw
