Division,Name,Sex,BirthDate,Age,WeightClassKg,Equipment,Bench1Kg,Bench2Kg,Bench3Kg,TotalKg,Bench4Kg,Best3BenchKg,Event,Place
Amateur Masters 40-44,Stacy Matsuyama,F,1979-02-14,43,60,Multi-ply,-120,-120,120,120,-127.5,120,B,1
Amateur Open,Stacia Cambra,F,1996-10-24,26,48,Multi-ply,120,-130,130,130,,130,B,1
Amateur Open,Leigha Meredith,F,1997-09-29,25,75,Multi-ply,142.5,162.5,175,175,,175,B,1
Amateur Open,Maria Mersberg,F,1982-03-22,40,110,Multi-ply,-220,220,-227.5,220,-227.5,220,B,1
Amateur Masters 40-44,U'ilani Ha,F,1979-06-26,43,140,Raw,102.5,107.5,110,110,112.5,110,B,1
Amateur Masters 45-49,Amy Horst,F,1977-09-21,45,90,Raw,-75,77.5,-82.5,77.5,,77.5,B,1
Amateur Masters 55-59,Patti Stover,F,1964-10-27,58,56,Raw,52.5,-55,-55,52.5,,52.5,B,1
Amateur Masters 60-64,Donna Backman,F,1960-03-20,62,52,Raw,52.5,55,57.5,57.5,,57.5,B,1
Amateur Open,Stacia Cambra,F,1996-10-24,26,48,Raw,77.5,-85,-85,77.5,,77.5,B,1
Amateur Teen 18-19,Gracie Rodney,F,2003-06-24,19,60,Raw,60,-62.5,-62.5,60,,60,B,1
Amateur Masters 40-44,Darren Elisaga,M,1979-05-01,43,140+,Multi-ply,-424.1,-424.1,424.1,424.1,,424.1,B,1
Amateur Masters 45-49,Chad Bertelmann,M,1976-03-21,46,110,Multi-ply,337.5,352.5,-355,352.5,,352.5,B,1
Amateur Open,Darren Elisaga,M,1979-05-01,43,140+,Multi-ply,-424.1,-424.1,424.1,424.1,,424.1,B,1
Amateur Masters 40-44,Alan Okamoto,M,1979-03-05,43,82.5,Raw,135,140,145,145,,145,B,1
Amateur Masters 70-74,Kenneth Ha,M,1950-09-18,72,75,Raw,-112.5,120,125,125,,125,B,1
Amateur Open,Ku'ilua Mortensen,M,1997-10-03,25,75,Raw,115,125,-127.5,125,,125,B,2
Amateur Open,Skyler Tehero,M,1991-07-23,31,75,Raw,135,145,157.5,157.5,,157.5,B,1
Amateur Open,Alan Okamoto,M,1979-03-05,43,82.5,Raw,135,140,145,145,,145,B,1
Amateur Open,Shannon Torres,M,2001-01-21,21,110,Raw,127.5,-142,-142.5,127.5,,127.5,B,2
Amateur Open,Zachariah Hanato,M,1993-02-26,29,110,Raw,152.5,165,-172.5,165,,165,B,1
Amateur Open,Devin Preston,M,1995-11-26,27,125,Raw,195,202.5,-207.5,202.5,,202.5,B,1
Amateur Teen 16-17,Antonyo Whitney-Palma,M,2006-07-31,16,56,Raw,42.5,47.5,-60,47.5,,47.5,B,1
Amateur Teen 16-17,Ehukai Kepoo,M,2006-01-25,16,82.5,Raw,105,110,-115,110,,110,B,1
Amateur Teen 16-17,Ryan-John Hudman,M,2006-05-27,16,100,Raw,70,82.5,-85,82.5,,82.5,B,1
